02_test/brc_tb/brc_wave.vcd
$version Generated by VerilatedVcd $end
$timescale 1ps $end
 $scope module TOP $end
  $scope module brc_tb $end
   $var wire 32 # rs1 [31:0] $end
   $var wire 32 $ rs2 [31:0] $end
   $var wire 1 % br_un $end
   $var wire 1 & equal $end
   $var wire 1 * less $end
   $var wire 32 ' correct_count [31:0] $end
   $var wire 32 - total_tests [31:0] $end
   $var wire 32 ( i [31:0] $end
   $var wire 32 ) run_test__Vstatic__temp_test [31:0] $end
   $scope module uut $end
    $var wire 1 % i_br_un $end
    $var wire 32 # i_rs1_data [31:0] $end
    $var wire 32 $ i_rs2_data [31:0] $end
    $var wire 1 * o_brc_less $end
    $var wire 1 & o_brc_equal $end
    $var wire 33 + sub [32:0] $end
   $upscope $end
  $upscope $end
 $upscope $end
$enddefinitions $end


#0
b00000000000000000000000000000000 #
b00000000000000000000000000000000 $
0%
1&
b00000000000000000000000000000000 '
b00000000000000000000000000000000 (
b00000000000000000000000000000000 )
0*
b000000000000000000000000000000000 +
b00000000000000000000000001100100 -
#10000
b11111111111111111111111111111110 #
0&
b00000000000000000000000000000001 '
b00000000000000000000000000000001 (
1*
b111111111111111111111111111111110 +
#20000
b00000000000000000000000000000000 #
1&
b00000000000000000000000000000010 '
b00000000000000000000000000000010 (
0*
b000000000000000000000000000000000 +
#30000
b11111111111111111111111111111110 #
0&
b00000000000000000000000000000011 '
b00000000000000000000000000000011 (
1*
b111111111111111111111111111111110 +
#40000
b00000000000000000000000000000011 #
b11111111111111111111111111111111 $
b00000000000000000000000000000100 '
b00000000000000000000000000000100 (
0*
b000000000000000000000000000000100 +
#50000
b00000000000000000000000000000001 #
b11111111111111111111111111111101 $
b00000000000000000000000000000101 '
b00000000000000000000000000000101 (
#60000
b11111111111111111111111111111101 #
b00000000000000000000000000000010 $
b00000000000000000000000000000110 '
b00000000000000000000000000000110 (
1*
b111111111111111111111111111111011 +
#70000
b11111111111111111111111111111110 #
b00000000000000000000000000000001 $
b00000000000000000000000000000111 '
b00000000000000000000000000000111 (
b111111111111111111111111111111101 +
#80000
b00000000000000000000000000000010 $
b00000000000000000000000000001000 '
b00000000000000000000000000001000 (
b111111111111111111111111111111100 +
#90000
b11111111111111111111111111111101 #
b00000000000000000000000000000000 $
b00000000000000000000000000001001 '
b00000000000000000000000000001001 (
b111111111111111111111111111111101 +
#100000
b00000000000000000000000000000011 #
b00000000000000000000000000001010 '
b00000000000000000000000000001010 (
0*
b000000000000000000000000000000011 +
#110000
b11111111111111111111111111111110 #
b00000000000000000000000000001011 '
b00000000000000000000000000001011 (
1*
b111111111111111111111111111111110 +
#120000
b00000000000000000000000000000010 #
b11111111111111111111111111111110 $
b00000000000000000000000000001100 '
b00000000000000000000000000001100 (
0*
b000000000000000000000000000000100 +
#130000
b00000000000000000000000000000010 $
1&
b00000000000000000000000000001101 '
b00000000000000000000000000001101 (
b000000000000000000000000000000000 +
#140000
b00000000000000000000000000000000 #
0&
b00000000000000000000000000001110 '
b00000000000000000000000000001110 (
1*
b111111111111111111111111111111110 +
#150000
b00000000000000000000000000000011 #
b00000000000000000000000000000000 $
b00000000000000000000000000001111 '
b00000000000000000000000000001111 (
0*
b000000000000000000000000000000011 +
#160000
b00000000000000000000000000000001 #
b11111111111111111111111111111110 $
b00000000000000000000000000010000 '
b00000000000000000000000000010000 (
#170000
b11111111111111111111111111111110 #
b11111111111111111111111111111101 $
b00000000000000000000000000010001 '
b00000000000000000000000000010001 (
b000000000000000000000000000000001 +
#180000
b00000000000000000000000000000011 #
b00000000000000000000000000000000 $
b00000000000000000000000000010010 '
b00000000000000000000000000010010 (
b000000000000000000000000000000011 +
#190000
b00000000000000000000000000000010 $
b00000000000000000000000000010011 '
b00000000000000000000000000010011 (
b000000000000000000000000000000001 +
#200000
b11111111111111111111111111111111 #
b11111111111111111111111111111101 $
b00000000000000000000000000010100 '
b00000000000000000000000000010100 (
b000000000000000000000000000000010 +
#210000
b00000000000000000000000000000010 #
b11111111111111111111111111111111 $
b00000000000000000000000000010101 '
b00000000000000000000000000010101 (
b000000000000000000000000000000011 +
#220000
b11111111111111111111111111111110 #
b00000000000000000000000000000000 $
b00000000000000000000000000010110 '
b00000000000000000000000000010110 (
1*
b111111111111111111111111111111110 +
#230000
b11111111111111111111111111111111 #
b00000000000000000000000000000011 $
b00000000000000000000000000010111 '
b00000000000000000000000000010111 (
b111111111111111111111111111111100 +
#240000
b00000000000000000000000000000000 #
b11111111111111111111111111111110 $
b00000000000000000000000000011000 '
b00000000000000000000000000011000 (
0*
b000000000000000000000000000000010 +
#250000
b11111111111111111111111111111110 #
b11111111111111111111111111111111 $
b00000000000000000000000000011001 '
b00000000000000000000000000011001 (
1*
b111111111111111111111111111111111 +
#260000
b11111111111111111111111111111101 #
b00000000000000000000000000011010 '
b00000000000000000000000000011010 (
b111111111111111111111111111111110 +
#270000
b00000000000000000000000000000011 #
b00000000000000000000000000000000 $
b00000000000000000000000000011011 '
b00000000000000000000000000011011 (
0*
b000000000000000000000000000000011 +
#280000
b00000000000000000000000000000001 #
b00000000000000000000000000000011 $
b00000000000000000000000000011100 '
b00000000000000000000000000011100 (
1*
b111111111111111111111111111111110 +
#290000
b11111111111111111111111111111111 #
b00000000000000000000000000000000 $
b00000000000000000000000000011101 '
b00000000000000000000000000011101 (
b111111111111111111111111111111111 +
#300000
b11111111111111111111111111111101 $
b00000000000000000000000000011110 '
b00000000000000000000000000011110 (
0*
b000000000000000000000000000000010 +
#310000
b11111111111111111111111111111101 #
b00000000000000000000000000000010 $
b00000000000000000000000000011111 '
b00000000000000000000000000011111 (
1*
b111111111111111111111111111111011 +
#320000
b00000000000000000000000000000001 #
b11111111111111111111111111111111 $
b00000000000000000000000000100000 '
b00000000000000000000000000100000 (
0*
b000000000000000000000000000000010 +
#330000
b00000000000000000000000000000000 #
b00000000000000000000000000100001 '
b00000000000000000000000000100001 (
b000000000000000000000000000000001 +
#340000
b00000000000000000000000000000001 #
b11111111111111111111111111111101 $
b00000000000000000000000000100010 '
b00000000000000000000000000100010 (
b000000000000000000000000000000100 +
#350000
b00000000000000000000000000000000 $
b00000000000000000000000000100011 '
b00000000000000000000000000100011 (
b000000000000000000000000000000001 +
#360000
b00000000000000000000000000000010 #
b00000000000000000000000000000010 $
1&
b00000000000000000000000000100100 '
b00000000000000000000000000100100 (
b000000000000000000000000000000000 +
#370000
b00000000000000000000000000000000 #
b00000000000000000000000000000000 $
b00000000000000000000000000100101 '
b00000000000000000000000000100101 (
#380000
b00000000000000000000000000000011 #
b11111111111111111111111111111101 $
0&
b00000000000000000000000000100110 '
b00000000000000000000000000100110 (
b000000000000000000000000000000110 +
#390000
b00000000000000000000000000000001 $
b00000000000000000000000000100111 '
b00000000000000000000000000100111 (
b000000000000000000000000000000010 +
#400000
b00000000000000000000000000000001 #
b11111111111111111111111111111110 $
b00000000000000000000000000101000 '
b00000000000000000000000000101000 (
b000000000000000000000000000000011 +
#410000
b00000000000000000000000000000011 #
b00000000000000000000000000000001 $
b00000000000000000000000000101001 '
b00000000000000000000000000101001 (
b000000000000000000000000000000010 +
#420000
b00000000000000000000000000101010 '
b00000000000000000000000000101010 (
#430000
b11111111111111111111111111111110 #
b11111111111111111111111111111111 $
b00000000000000000000000000101011 '
b00000000000000000000000000101011 (
1*
b111111111111111111111111111111111 +
#440000
b11111111111111111111111111111111 #
b00000000000000000000000000000001 $
b00000000000000000000000000101100 '
b00000000000000000000000000101100 (
b111111111111111111111111111111110 +
#450000
b11111111111111111111111111111111 $
1&
b00000000000000000000000000101101 '
b00000000000000000000000000101101 (
0*
b000000000000000000000000000000000 +
#460000
b00000000000000000000000000000010 #
b00000000000000000000000000000011 $
0&
b00000000000000000000000000101110 '
b00000000000000000000000000101110 (
1*
b111111111111111111111111111111111 +
#470000
b00000000000000000000000000101111 '
b00000000000000000000000000101111 (
#480000
b00000000000000000000000000000011 #
1&
b00000000000000000000000000110000 '
b00000000000000000000000000110000 (
0*
b000000000000000000000000000000000 +
#490000
b00000000000000000000000000000000 #
b00000000000000000000000000000010 $
0&
b00000000000000000000000000110001 '
b00000000000000000000000000110001 (
1*
b111111111111111111111111111111110 +
#500000
b11111111111111111111111111111111 #
b00000000000000000000000000000000 $
1%
b00000000000000000000000000110010 '
b00000000000000000000000000000000 (
b111111111111111111111111111111111 +
#510000
b11111111111111111111111111111110 #
b00000000000000000000000000000001 $
b00000000000000000000000000110011 '
b00000000000000000000000000000001 (
b111111111111111111111111111111101 +
#520000
b00000000000000000000000000000000 #
b00000000000000000000000000000000 $
1&
b00000000000000000000000000110100 '
b00000000000000000000000000000010 (
0*
b000000000000000000000000000000000 +
#530000
b00000000000000000000000000000001 #
b11111111111111111111111111111101 $
0&
b00000000000000000000000000110101 '
b00000000000000000000000000000011 (
b000000000000000000000000000000100 +
#540000
b11111111111111111111111111111111 $
b00000000000000000000000000110110 '
b00000000000000000000000000000100 (
b000000000000000000000000000000010 +
#550000
b00000000000000000000000000000001 $
1&
b00000000000000000000000000110111 '
b00000000000000000000000000000101 (
b000000000000000000000000000000000 +
#560000
b11111111111111111111111111111101 #
b00000000000000000000000000000010 $
0&
b00000000000000000000000000111000 '
b00000000000000000000000000000110 (
1*
b111111111111111111111111111111011 +
#570000
b00000000000000000000000000000010 #
1&
b00000000000000000000000000111001 '
b00000000000000000000000000000111 (
0*
b000000000000000000000000000000000 +
#580000
b00000000000000000000000000000000 #
b00000000000000000000000000000001 $
0&
b00000000000000000000000000111010 '
b00000000000000000000000000001000 (
1*
b111111111111111111111111111111111 +
#590000
b00000000000000000000000000000000 $
1&
b00000000000000000000000000111011 '
b00000000000000000000000000001001 (
0*
b000000000000000000000000000000000 +
#600000
b11111111111111111111111111111111 $
0&
b00000000000000000000000000111100 '
b00000000000000000000000000001010 (
b000000000000000000000000000000001 +
#610000
b00000000000000000000000000000001 $
b00000000000000000000000000111101 '
b00000000000000000000000000001011 (
1*
b111111111111111111111111111111111 +
#620000
b00000000000000000000000000000010 $
b00000000000000000000000000111110 '
b00000000000000000000000000001100 (
b111111111111111111111111111111110 +
#630000
b00000000000000000000000000000011 #
b00000000000000000000000000000011 $
1&
b00000000000000000000000000111111 '
b00000000000000000000000000001101 (
0*
b000000000000000000000000000000000 +
#640000
b00000000000000000000000000000000 $
0&
b00000000000000000000000001000000 '
b00000000000000000000000000001110 (
b000000000000000000000000000000011 +
#650000
b00000000000000000000000001000001 '
b00000000000000000000000000001111 (
#660000
b11111111111111111111111111111110 #
b11111111111111111111111111111111 $
b00000000000000000000000001000010 '
b00000000000000000000000000010000 (
1*
b111111111111111111111111111111111 +
#670000
b00000000000000000000000000000010 #
b00000000000000000000000001000011 '
b00000000000000000000000000010001 (
0*
b000000000000000000000000000000011 +
#680000
b00000000000000000000000000000011 #
b00000000000000000000000000000000 $
b00000000000000000000000001000100 '
b00000000000000000000000000010010 (
#690000
b00000000000000000000000000000000 #
1&
b00000000000000000000000001000101 '
b00000000000000000000000000010011 (
b000000000000000000000000000000000 +
#700000
b11111111111111111111111111111111 $
0&
b00000000000000000000000001000110 '
b00000000000000000000000000010100 (
b000000000000000000000000000000001 +
#710000
b11111111111111111111111111111101 #
b00000000000000000000000000000000 $
b00000000000000000000000001000111 '
b00000000000000000000000000010101 (
1*
b111111111111111111111111111111101 +
#720000
b00000000000000000000000000000000 #
b11111111111111111111111111111101 $
b00000000000000000000000001001000 '
b00000000000000000000000000010110 (
0*
b000000000000000000000000000000011 +
#730000
b00000000000000000000000000000010 #
b00000000000000000000000001001001 '
b00000000000000000000000000010111 (
b000000000000000000000000000000101 +
#740000
b00000000000000000000000000000011 #
b11111111111111111111111111111111 $
b00000000000000000000000001001010 '
b00000000000000000000000000011000 (
b000000000000000000000000000000100 +
#750000
b00000000000000000000000000000000 #
b00000000000000000000000000000000 $
1&
b00000000000000000000000001001011 '
b00000000000000000000000000011001 (
b000000000000000000000000000000000 +
#760000
b11111111111111111111111111111110 #
b00000000000000000000000000000010 $
0&
b00000000000000000000000001001100 '
b00000000000000000000000000011010 (
1*
b111111111111111111111111111111100 +
#770000
b00000000000000000000000000000001 #
b00000000000000000000000000000000 $
b00000000000000000000000001001101 '
b00000000000000000000000000011011 (
0*
b000000000000000000000000000000001 +
#780000
b00000000000000000000000000000000 #
1&
b00000000000000000000000001001110 '
b00000000000000000000000000011100 (
b000000000000000000000000000000000 +
#790000
b00000000000000000000000000000001 #
b11111111111111111111111111111111 $
0&
b00000000000000000000000001001111 '
b00000000000000000000000000011101 (
b000000000000000000000000000000010 +
#800000
b11111111111111111111111111111110 #
b00000000000000000000000000000001 $
b00000000000000000000000001010000 '
b00000000000000000000000000011110 (
1*
b111111111111111111111111111111101 +
#810000
b00000000000000000000000000000011 #
b11111111111111111111111111111111 $
b00000000000000000000000001010001 '
b00000000000000000000000000011111 (
0*
b000000000000000000000000000000100 +
#820000
b00000000000000000000000000000010 #
b00000000000000000000000000000000 $
b00000000000000000000000001010010 '
b00000000000000000000000000100000 (
b000000000000000000000000000000010 +
#830000
b00000000000000000000000000000000 #
b00000000000000000000000000000011 $
b00000000000000000000000001010011 '
b00000000000000000000000000100001 (
1*
b111111111111111111111111111111101 +
#840000
b00000000000000000000000001010100 '
b00000000000000000000000000100010 (
#850000
b00000000000000000000000000000001 $
b00000000000000000000000001010101 '
b00000000000000000000000000100011 (
b111111111111111111111111111111111 +
#860000
b00000000000000000000000000000001 #
b11111111111111111111111111111111 $
b00000000000000000000000001010110 '
b00000000000000000000000000100100 (
0*
b000000000000000000000000000000010 +
#870000
b00000000000000000000000000000010 #
b00000000000000000000000000000000 $
b00000000000000000000000001010111 '
b00000000000000000000000000100101 (
#880000
b00000000000000000000000000000000 #
b11111111111111111111111111111111 $
b00000000000000000000000001011000 '
b00000000000000000000000000100110 (
b000000000000000000000000000000001 +
#890000
b11111111111111111111111111111101 #
b11111111111111111111111111111110 $
b00000000000000000000000001011001 '
b00000000000000000000000000100111 (
1*
b111111111111111111111111111111111 +
#900000
b00000000000000000000000000000001 #
b00000000000000000000000000000000 $
b00000000000000000000000001011010 '
b00000000000000000000000000101000 (
0*
b000000000000000000000000000000001 +
#910000
b00000000000000000000000000000000 #
b11111111111111111111111111111101 $
b00000000000000000000000001011011 '
b00000000000000000000000000101001 (
b000000000000000000000000000000011 +
#920000
b11111111111111111111111111111111 $
b00000000000000000000000001011100 '
b00000000000000000000000000101010 (
b000000000000000000000000000000001 +
#930000
b00000000000000000000000000000011 #
b00000000000000000000000000000011 $
1&
b00000000000000000000000001011101 '
b00000000000000000000000000101011 (
b000000000000000000000000000000000 +
#940000
b11111111111111111111111111111101 #
b00000000000000000000000000000010 $
0&
b00000000000000000000000001011110 '
b00000000000000000000000000101100 (
1*
b111111111111111111111111111111011 +
#950000
b00000000000000000000000000000000 #
b11111111111111111111111111111110 $
b00000000000000000000000001011111 '
b00000000000000000000000000101101 (
0*
b000000000000000000000000000000010 +
#960000
b11111111111111111111111111111111 #
b00000000000000000000000000000000 $
b00000000000000000000000001100000 '
b00000000000000000000000000101110 (
1*
b111111111111111111111111111111111 +
#970000
b11111111111111111111111111111110 #
b00000000000000000000000000000011 $
b00000000000000000000000001100001 '
b00000000000000000000000000101111 (
b111111111111111111111111111111011 +
#980000
b11111111111111111111111111111101 #
b11111111111111111111111111111101 $
1&
b00000000000000000000000001100010 '
b00000000000000000000000000110000 (
0*
b000000000000000000000000000000000 +
#990000
b11111111111111111111111111111111 #
b11111111111111111111111111111110 $
0&
b00000000000000000000000001100011 '
b00000000000000000000000000110001 (
b000000000000000000000000000000001 +
#1000000
b00000000000000000000000001100100 '
b00000000000000000000000000110010 (
